This is BibTeX, Version 0.99d (TeX Live 2015/Debian)
Capacity: max_strings=35307, hash_size=35307, hash_prime=30011
The top-level auxiliary file: main.aux
The style file: natbib.bst
Database file #1: main.bib
Warning--empty journal in diginorm
You've used 32 entries,
            2378 wiz_defined-function locations,
            731 strings with 11000 characters,
and the built_in function-call counts, 18509 in all, are:
= -- 1604
> -- 1377
< -- 10
+ -- 423
- -- 417
* -- 1887
:= -- 3288
add.period$ -- 166
call.type$ -- 32
change.case$ -- 198
chr.to.int$ -- 30
cite$ -- 33
duplicate$ -- 659
empty$ -- 1078
format.name$ -- 461
if$ -- 3601
int.to.chr$ -- 3
int.to.str$ -- 0
missing$ -- 32
newline$ -- 177
num.names$ -- 128
pop$ -- 199
preamble$ -- 1
purify$ -- 198
quote$ -- 0
skip$ -- 420
stack$ -- 0
substring$ -- 1074
swap$ -- 138
text.length$ -- 3
text.prefix$ -- 0
top$ -- 0
type$ -- 288
warning$ -- 1
while$ -- 139
width$ -- 0
write$ -- 444
(There was 1 warning)
