\relax 
\citation{pmid22587947}
\citation{pmid23131830}
\citation{pmid22683423}
\citation{pmid22719819}
\citation{pmid22587947}
\citation{bd1}
\citation{pmid28257474}
\citation{pmid26318260}
\citation{pmid25388227}
\citation{pmid22819835}
\citation{pmid23840382}
\citation{pmid25055967}
\citation{pmid27121729}
\newlabel{^_1}{{}{1}}
\@writefile{toc}{\contentsline {section}{\numberline {1}Introduction}{1}}
\citation{HBAM}
\citation{seqpig}
\citation{MegaHit}
\citation{bwa}
\citation{MegaHit}
\citation{abyss}
\citation{HBAM}
\citation{HT-BLAST}
\citation{mapreduce}
\citation{RDD}
\@writefile{toc}{\contentsline {section}{\numberline {2}Distributed and parallel computation}{2}}
\@writefile{toc}{\contentsline {subsection}{\numberline {{2.1}}Parallel characteristics of genomic data}{2}}
\@writefile{toc}{\contentsline {subsection}{\numberline {{2.2}}Apache Hadoop and Spark}{2}}
\citation{HALVADE}
\citation{HALVADE}
\citation{cloudbrush}
\citation{7363853}
\citation{ebi}
\@writefile{toc}{\contentsline {subsection}{\numberline {{2.3}}Hadoop and Spark based genomic data processing frameworks}{3}}
\@writefile{lof}{\contentsline {figure}{\numberline {1}{\ignorespaces Data reduction process.}}{3}}
\newlabel{etl}{{1}{3}}
\@writefile{toc}{\contentsline {section}{\numberline {3}Parallel analysis pipeline}{3}}
\@writefile{toc}{\contentsline {subsection}{\numberline {{3.1}}Viral metagenomics workflow}{3}}
\citation{Vollmers}
\@writefile{toc}{\contentsline {subsection}{\numberline {{3.2}}Design basis}{4}}
\@writefile{toc}{\contentsline {subsection}{\numberline {{3.3}}Implementation}{4}}
\@writefile{toc}{\contentsline {subsubsection}{\numberline {{{3.3}.1}}Preprocessing NGS input data}{4}}
\@writefile{lof}{\contentsline {figure}{\numberline {2}{\ignorespaces Pipeline workflow.}}{4}}
\newlabel{workflow}{{2}{4}}
\@writefile{toc}{\contentsline {subsubsection}{\numberline {{{3.3}.2}}Reference alignment}{4}}
\citation{diginorm}
\citation{pmid23598997}
\citation{pmid25140992}
\citation{pmid26318260}
\citation{pmid25388227}
\citation{pmid22819835}
\citation{pmid23840382}
\citation{pmid25055967}
\citation{pmid27121729}
\@writefile{toc}{\contentsline {subsubsection}{\numberline {{{3.3}.3}}Filtration}{5}}
\@writefile{toc}{\contentsline {subsubsection}{\numberline {{{3.3}.4}}K-mer normalization}{5}}
\@writefile{toc}{\contentsline {subsubsection}{\numberline {{{3.3}.5}}\emph  {De Novo} contigs assembly}{5}}
\@writefile{toc}{\contentsline {subsubsection}{\numberline {{{3.3}.6}}BLAST search for viral genomes}{5}}
\@writefile{toc}{\contentsline {subsubsection}{\numberline {{{3.3}.7}}HMMER3 search for viral genomes}{5}}
\@writefile{toc}{\contentsline {section}{\numberline {4}Experiments}{5}}
\@writefile{toc}{\contentsline {subsection}{\numberline {{4.1}}Patients and samples}{5}}
\@writefile{toc}{\contentsline {subsection}{\numberline {{4.2}}Cluster setup}{5}}
\@writefile{toc}{\contentsline {subsection}{\numberline {{4.3}}Results}{5}}
\newlabel{table}{{{{3.3}.3}}{6}}
\@writefile{lot}{\contentsline {table}{\numberline {1}{\ignorespaces Run time measurements is reported in minutes per individual human sample in different processing phases. Input data size in each phase is reported in bytes. Total input reads describes the total amount of sequenced reads and the read length is the length of a each read in base pairs.}}{6}}
\@writefile{lof}{\contentsline {figure}{\numberline {3}{\ignorespaces \relax $\@@underline {\hbox {Scalability of the pipeline with respect to raw sample data size ( See Table 1 for more detailed measurements )}}\mathsurround \z@ $\relax .}}{6}}
\newlabel{results}{{3}{6}}
\@writefile{lof}{\contentsline {figure}{\numberline {4}{\ignorespaces Scalability of the pipeline with respect to number of samples.}}{6}}
\newlabel{results}{{4}{6}}
\citation{Vollmers}
\citation{mpiblast}
\citation{upc}
\citation{CUSHAW3}
\citation{megaseq}
\citation{HALVADE}
\bibstyle{natbib}
\bibdata{main}
\@writefile{toc}{\contentsline {subsection}{\numberline {{4.4}}Discussion}{7}}
\@writefile{toc}{\contentsline {section}{\numberline {5}Conclusions}{7}}
\bibcite{7363853}{{1}{2015}{{Abu-Doleh and \c {C}ataly{\"u}rek}}{{Abu-Doleh and \c {C}ataly{\"u}rek}}}
\bibcite{pmid26318260}{{2}{2015a}{{Arroyo~M{\"u}hr {\em  et~al.}}}{{Arroyo~M{\"u}hr, Bzhalava, Lagheden, Eklund, Johansson, Forslund, Dillner, and Hultin}}}
\bibcite{pmid25388227}{{3}{2015b}{{Arroyo~M{\"u}hr {\em  et~al.}}}{{Arroyo~M{\"u}hr, Hultin, Bzhalava, Eklund, Lagheden, Ekstr{\"o}m, Johansson, Forslund, and Dillner}}}
\bibcite{pmid28257474}{{4}{2017}{{Arroyo~M{\"u}hr {\em  et~al.}}}{{Arroyo~M{\"u}hr, Hortlund, Bzhalava, Nordqvist~Kleppe, Bzhalava, Hultin, and Dillner}}}
\bibcite{diginorm}{{5}{2012}{{Brown {\em  et~al.}}}{{Brown, Howe, Zhang, Pyrkosz, and Brom}}}
\bibcite{pmid22819835}{{6}{2012}{{Bzhalava {\em  et~al.}}}{{Bzhalava, Ekstr{\"o}m, Lysholm, Hultin, Faust, Persson, Lehtinen, de~Villiers, and Dillner}}}
\bibcite{pmid23840382}{{7}{2013}{{Bzhalava {\em  et~al.}}}{{Bzhalava, Johansson, Ekstr{\"o}m, Faust, Moller, Eklund, Nordin, Stenquist, Paoli, Persson, Forslund, and Dillner}}}
\bibcite{pmid25055967}{{8}{2014}{{Bzhalava {\em  et~al.}}}{{Bzhalava, M{\"u}hr, Lagheden, Ekstr{\"o}m, Forslund, Dillner, and Hultin}}}
\bibcite{mpiblast}{{9}{2011}{{C and P}}{{C and P}}}
\bibcite{cloudbrush}{{10}{2012}{{Chang {\em  et~al.}}}{{Chang, Chen, Chen, and Ho}}}
\bibcite{HALVADE}{{11}{2015}{{Decap {\em  et~al.}}}{{Decap, Reumers, Herzeel, Costanza, and Fostier}}}
\bibcite{upc}{{12}{2016}{{Gonzalez-Dom{\'i}nguez {\em  et~al.}}}{{Gonzalez-Dom{\'i}nguez, Liu, and Schmidt}}}
\bibcite{mapreduce}{{13}{2004}{{Jeffrey and Sanjay}}{{Jeffrey and Sanjay}}}
\bibcite{MegaHit}{{14}{2016}{{Li {\em  et~al.}}}{{Li, Luo, Liu, Leung, Ting, Sadakane, Yamashita, and Lam}}}
\bibcite{bwa}{{15}{2009}{{Li and Durbin}}{{Li and Durbin}}}
\bibcite{CUSHAW3}{{16}{2011}{{Lin {\em  et~al.}}}{{Lin, Li, Shen, Zhang, Papasian, and Deng}}}
\bibcite{RDD}{{17}{2012}{{Matei}}{{Matei}}}
\bibcite{pmid23598997}{{18}{2013}{{Mistry {\em  et~al.}}}{{Mistry, Finn, Eddy, Bateman, and Punta}}}
\bibcite{ebi}{{19}{2016}{{Mitchell {\em  et~al.}}}{{Mitchell, Bucchini, Cochrane, Denise, Hoopen, Fraser, Pesseat, Potter, Scheremetjew, Sterk, and Finn}}}
\bibcite{HBAM}{{20}{2012}{{Niemenmaa {\em  et~al.}}}{{Niemenmaa, Kallio, Schumacher, Klemel{\"a}, Korpelainen, and Heljanko}}}
\bibcite{megaseq}{{21}{2014}{{Puckelwartz {\em  et~al.}}}{{Puckelwartz, Pesce, Nelakuditi, Dellefave{-}Castillo, Golbus, Day, Cappola, Dorn~II, Foster, and McNally}}}
\bibcite{pmid23131830}{{22}{2012}{{Rogers and Bruce}}{{Rogers and Bruce}}}
\bibcite{seqpig}{{23}{2014}{{Schumacher {\em  et~al.}}}{{Schumacher, Pireddu, Niemenmaa, Kallio, Korpelainen, Zanetti, and Heljanko}}}
\bibcite{abyss}{{24}{2009}{{Simpson {\em  et~al.}}}{{Simpson, Wong, Jackman, Schein, Jones, and Birol}}}
\bibcite{pmid25140992}{{25}{2014}{{Skewes-Cox {\em  et~al.}}}{{Skewes-Cox, Sharpton, Pollard, and DeRisi}}}
\bibcite{pmid27121729}{{26}{2016}{{Smelov {\em  et~al.}}}{{Smelov, Bzhalava, Arroyo~M{\"u}hr, Eklund, Komyakov, Gorelov, Dillner, and Hultin}}}
\bibcite{bd1}{{27}{2015}{{Stephens {\em  et~al.}}}{{Stephens, Lee, Faghri, Campbell, Zhai, Efron, Iyer, Schatz, Sinha, and Robinson}}}
\bibcite{pmid22587947}{{28}{2012}{{Thomas {\em  et~al.}}}{{Thomas, Gilbert, and Meyer}}}
\bibcite{Vollmers}{{29}{2017}{{Vollmers {\em  et~al.}}}{{Vollmers, Wiegand, and Kaster}}}
\bibcite{HT-BLAST}{{30}{2003}{{Wang and Mu}}{{Wang and Mu}}}
\bibcite{pmid22683423}{{31}{2012a}{{Wylie {\em  et~al.}}}{{Wylie, Weinstock, and Storch}}}
\bibcite{pmid22719819}{{32}{2012b}{{Wylie {\em  et~al.}}}{{Wylie, Mihindukulasuriya, Sodergren, Weinstock, and Storch}}}
\global\@namedef{@lastpage@}{8}
